…
Compared to

``` r
library(tibble)
cases_deaths_subset
```

    #> # A tibble: 4,026 × 6
    #>    geo_value time_value case_rate_7d_av death_rate_7d_av cases cases_7d_av
    #>  * <chr>     <date>               <dbl>            <dbl> <dbl>       <dbl>
    #>  1 ca        2020-03-01         0.00327         0            6        1.29
    #>  2 ca        2020-03-02         0.00435         0            4        1.71
    #>  3 ca        2020-03-03         0.00617         0            6        2.43
    #>  4 ca        2020-03-04         0.00980         0.000363    11        3.86
    #>  5 ca        2020-03-05         0.0134          0.000363    10        5.29
    #>  6 ca        2020-03-06         0.0200          0.000363    18        7.86
    #>  7 ca        2020-03-07         0.0294          0.000363    26       11.6 
    #>  8 ca        2020-03-08         0.0341          0.000363    19       13.4 
    #>  9 ca        2020-03-09         0.0410          0.000726    23       16.1 
    #> 10 ca        2020-03-10         0.0468          0.000726    22       18.4 
    #> # ℹ 4,016 more rows

Compared to

``` r
library(epiprocess)
cases_deaths_subset
```

    #> An `epi_df` object, 4,026 x 6 with metadata:
    #> * geo_type  = state
    #> * time_type = day
    #> * as_of     = 2023-06-07 16:50:07.8681
    #> 
    #> # A tibble: 4,026 × 6
    #>    geo_value time_value case_rate_7d_av death_rate_7d_av cases cases_7d_av
    #>  * <chr>     <date>               <dbl>            <dbl> <dbl>       <dbl>
    #>  1 ca        2020-03-01         0.00327         0            6        1.29
    #>  2 ca        2020-03-02         0.00435         0            4        1.71
    #>  3 ca        2020-03-03         0.00617         0            6        2.43
    #>  4 ca        2020-03-04         0.00980         0.000363    11        3.86
    #>  5 ca        2020-03-05         0.0134          0.000363    10        5.29
    #>  6 ca        2020-03-06         0.0200          0.000363    18        7.86
    #>  7 ca        2020-03-07         0.0294          0.000363    26       11.6 
    #>  8 ca        2020-03-08         0.0341          0.000363    19       13.4 
    #>  9 ca        2020-03-09         0.0410          0.000726    23       16.1 
    #> 10 ca        2020-03-10         0.0468          0.000726    22       18.4 
    #> # ℹ 4,016 more rows
…
